{"count":90,"next":"http://api.dayinhistory.dev/v1/today/births/?page=2","previous":null,"results":[{"created_at":"2025-05-30T18:26:20.783265Z","updated_at":"2025-05-30T18:26:20.943339Z","type":"birth","name":"Alasdair MacIntyre","description":"Scottish-born philosopher","bio":"Alasdair MacIntyre is a Scottish-born philosopher, one of the great moral thinkers of the late 20th and early 21st centuries, well known for reintroducing Aristotelian ethics and politics into mainstream.","birth_year":"1929","death_year":"","image":"https://cdn.dayinhistory.dev/images/bio/1630-alasdair_macintyre.jpg"},{"created_at":"2025-05-30T18:26:20.783265Z","updated_at":"2025-05-30T18:26:20.943339Z","type":"birth","name":"Alfred Rosenberg","description":"German Nazi leader","bio":"Alfred Rosenberg was a German ideologist of Nazism.","birth_year":"1893","death_year":"1946","image":"https://cdn.dayinhistory.dev/images/bio/1562-alfred_rosenberg.jpg"},{"created_at":"2025-05-30T18:26:20.783265Z","updated_at":"2025-05-30T18:26:20.943339Z","type":"birth","name":"Archibald Leman Cochrane","description":"British physician","bio":"Archibald Leman Cochrane was a British physician who contributed greatly to the development of epidemiology, emphasized the necessity for randomized control trials (RCTs) in medical studies, and was a.","birth_year":"1909","death_year":"1988","image":null},{"created_at":"2025-05-30T18:26:20.783265Z","updated_at":"2025-05-30T18:26:20.943339Z","type":"birth","name":"Bernhard ten Brink","description":"German scholar","bio":"Bernhard ten Brink was a scholar whose research stimulated a revival of British and German study of Geoffrey Chaucer’s works.","birth_year":"1841","death_year":"1892","image":null},{"created_at":"2025-05-30T18:26:20.783265Z","updated_at":"2025-05-30T18:26:20.943339Z","type":"birth","name":"Bo McMillin","description":"American athlete","bio":"Bo McMillin was an American collegiate and professional football player and coach.","birth_year":"1895","death_year":"1952","image":"https://cdn.dayinhistory.dev/images/bio/1606-bo_mcmillin.jpg"},{"created_at":"2025-05-30T18:26:20.783265Z","updated_at":"2025-05-30T18:26:20.943339Z","type":"birth","name":"Bolesław Leśmian","description":"Polish poet","bio":"Bolesław Leśmian was a lyric poet who was among the first to adapt Symbolism and Expressionism to Polish verse.","birth_year":"1877","death_year":"1878","image":"https://cdn.dayinhistory.dev/images/bio/1609-bolesaw_lesmian.jpg"},{"created_at":"2025-05-30T18:26:20.783265Z","updated_at":"2025-05-30T18:26:20.943339Z","type":"birth","name":"Brooke Foss Westcott","description":"British bishop and scholar","bio":"Brooke Foss Westcott was an Anglican bishop of Durham, England, and a biblical scholar who collaborated with Fenton J.","birth_year":"1825","death_year":"1901","image":"https://cdn.dayinhistory.dev/images/bio/1590-brooke_foss_westcott.jpg"},{"created_at":"2025-05-30T18:26:20.783265Z","updated_at":"2025-05-30T18:26:20.943339Z","type":"birth","name":"Caroline Maria Seymour Severance","description":"American social reformer","bio":"Caroline Maria Seymour Severance was an American reformer and clubwoman who was especially active in woman suffrage and other women’s issues of her day.","birth_year":"1820","death_year":"1914","image":"https://cdn.dayinhistory.dev/images/bio/1636-caroline_maria_seymour_severance.jpg"},{"created_at":"2025-05-30T18:26:20.783265Z","updated_at":"2025-05-30T18:26:20.943339Z","type":"birth","name":"Charles Emmanuel I","description":"duke of Savoy","bio":"Charles Emmanuel I was the duke of Savoy who alternated alliances with France and Spain, taking advantage of the European power struggle in order to further his expansionist policy.","birth_year":"1562","death_year":"1630","image":"https://cdn.dayinhistory.dev/images/bio/1582-charles_emmanuel_i.jpg"},{"created_at":"2025-05-30T18:26:20.783265Z","updated_at":"2025-05-30T18:26:20.943339Z","type":"birth","name":"Charles Perrault","description":"French author","bio":"Charles Perrault was a French poet, prose writer, and storyteller, a leading member of the Académie Française, who played a prominent part in a literary controversy known as the quarrel of the Ancients.","birth_year":"1628","death_year":"1703","image":"https://cdn.dayinhistory.dev/images/bio/1547-charles_perrault.jpg"},{"created_at":"2025-05-30T18:26:20.783265Z","updated_at":"2025-05-30T18:26:20.943339Z","type":"birth","name":"Christiane Amanpour","description":"journalist","bio":"Christiane Amanpour is an English-born journalist who, as a correspondent for CNN, was one of the leading war reporters of the late 20th and early 21st centuries.","birth_year":"1958","death_year":"","image":"https://cdn.dayinhistory.dev/images/bio/1561-christiane_amanpour.jpg"},{"created_at":"2025-05-30T18:26:20.783265Z","updated_at":"2025-05-30T18:26:20.943339Z","type":"birth","name":"David Mitchell","description":"English author","bio":"David Mitchell is an English author whose novels are noted for their lyrical prose style and complex structures.","birth_year":"1969","death_year":"","image":"https://cdn.dayinhistory.dev/images/bio/1560-david_mitchell.jpg"},{"created_at":"2025-05-30T18:26:20.783265Z","updated_at":"2025-05-30T18:26:20.943339Z","type":"birth","name":"David Wechsler","description":"American psychologist","bio":"David Wechsler was an American psychologist and inventor of several widely used intelligence tests for adults and children.","birth_year":"1896","death_year":"1981","image":"https://cdn.dayinhistory.dev/images/bio/1569-david_wechsler.jpg"},{"created_at":"2025-05-30T18:26:20.783265Z","updated_at":"2025-05-30T18:26:20.943339Z","type":"birth","name":"Edmund Burke","description":"British philosopher and statesman","bio":"Edmund Burke was a British statesman, parliamentary orator, and political thinker prominent in public life from 1765 to about 1795 and important in the history of political theory.","birth_year":"1729","death_year":"1797","image":"https://cdn.dayinhistory.dev/images/bio/1555-edmund_burke.jpg"},{"created_at":"2025-05-30T18:26:20.783265Z","updated_at":"2025-05-30T18:26:20.943339Z","type":"birth","name":"Erik Gustaf Geijer","description":"Swedish author","bio":"Erik Gustaf Geijer was a Swedish poet, historian, philosopher, and social and political theorist who was a leading advocate, successively, of the conservative and liberal points of view.","birth_year":"1783","death_year":"1847","image":"https://cdn.dayinhistory.dev/images/bio/1607-erik_gustaf_geijer.jpg"},{"created_at":"2025-05-30T18:26:20.783265Z","updated_at":"2025-05-30T18:26:20.943339Z","type":"birth","name":"Ermanno Wolf-Ferrari","description":"Italian composer","bio":"Ermanno Wolf-Ferrari was an Italian operatic composer who followed both the comic and the realistic traditions.","birth_year":"1876","death_year":"1948","image":"https://cdn.dayinhistory.dev/images/bio/1587-ermanno_wolf_ferrari.jpg"},{"created_at":"2025-05-30T18:26:20.783265Z","updated_at":"2025-05-30T18:26:20.943339Z","type":"birth","name":"Eugen Dühring","description":"German philosopher and economist","bio":"Eugen Dühring was a philosopher, political economist, prolific writer, and a leading German adherent of positivism, the philosophical view that positive knowledge is gained through observation of natural.","birth_year":"1833","death_year":"1921","image":"https://cdn.dayinhistory.dev/images/bio/1595-eugen_duhring.jpg"},{"created_at":"2025-05-30T18:26:20.783265Z","updated_at":"2025-05-30T18:26:20.943339Z","type":"birth","name":"Ferdinand","description":"Prussian general","bio":"Ferdinand was the duke of Brunswick-Lüneburg and Prussian general field marshal who defended western Germany for his brother-in-law Frederick II the Great in the Seven Years’ War (1756–63), protecting.","birth_year":"1721","death_year":"1792","image":"https://cdn.dayinhistory.dev/images/bio/1601-ferdinand.jpg"},{"created_at":"2025-05-30T18:26:20.783265Z","updated_at":"2025-05-30T18:26:20.943339Z","type":"birth","name":"Ferenc Molnár","description":"Hungarian author","bio":"Ferenc Molnár was a Hungarian playwright and novelist who was known for his plays about the contemporary salon life of Budapest and for his moving short stories.","birth_year":"1878","death_year":"1952","image":"https://cdn.dayinhistory.dev/images/bio/1578-ferenc_molnar.jpg"},{"created_at":"2025-05-30T18:26:20.783265Z","updated_at":"2025-05-30T18:26:20.943339Z","type":"birth","name":"Fevzi Çakmak","description":"Turkish statesman","bio":"Fevzi Çakmak was a Turkish marshal and statesman who played a leading role in the establishment of the Turkish Republic.","birth_year":"1876","death_year":"1950","image":"https://cdn.dayinhistory.dev/images/bio/1589-fevzi_cakmak.png"}]}