{"count":63,"next":"http://api.dayinhistory.dev/v1/today/deaths/?page=2","previous":null,"results":[{"created_at":"2025-05-30T18:26:20.783265Z","updated_at":"2025-05-30T18:26:20.943339Z","type":"death","name":"A.E. Coppard","description":"British author","bio":"A.","birth_year":"1878","death_year":"1957","image":"https://cdn.dayinhistory.dev/images/bio/1801-ae_coppard.jpg"},{"created_at":"2025-05-30T18:26:20.783265Z","updated_at":"2025-05-30T18:26:20.943339Z","type":"death","name":"Aleksandr Popov","description":"Russian engineer","bio":"Aleksandr Popov was a physicist and electrical engineer acclaimed in Russia as the inventor of radio.","birth_year":"1859","death_year":"1906","image":null},{"created_at":"2025-05-30T18:26:20.783265Z","updated_at":"2025-05-30T18:26:20.943339Z","type":"death","name":"Alexandre Ribot","description":"premier of France","bio":"Alexandre Ribot was a French statesman of the Third Republic who was four times premier of France.","birth_year":"1842","death_year":"1923","image":"https://cdn.dayinhistory.dev/images/bio/1799-alexandre_ribot.jpg"},{"created_at":"2025-05-30T18:26:20.783265Z","updated_at":"2025-05-30T18:26:20.943339Z","type":"death","name":"Bertrand Barère","description":"French revolutionary","bio":"Bertrand Barère was a leading member of the Committee of Public Safety that ruled Revolutionary France during the period of the Jacobin dictatorship (1793–94); his stringent policies against those suspected.","birth_year":"1755","death_year":"1841","image":"https://cdn.dayinhistory.dev/images/bio/1788-bertrand_barere.jpg"},{"created_at":"2025-05-30T18:26:20.783265Z","updated_at":"2025-05-30T18:26:20.943339Z","type":"death","name":"Brecker, Michael Leonard","description":"American musician","bio":"Brecker, Michael Leonard was an American tenor saxophonist, whose stark, jagged, yet driving jazz style influenced many tenor saxophonists in the late 20th and early 21st centuries.","birth_year":"1949","death_year":"2007","image":"https://cdn.dayinhistory.dev/images/bio/1775-brecker_michael_leonard.jpg"},{"created_at":"2025-05-30T18:26:20.783265Z","updated_at":"2025-05-30T18:26:20.943339Z","type":"death","name":"Carlos Luis de Borbón, count de Montemolín","description":"Spanish noble","bio":"Carlos Luis de Borbón, count de Montemolín was the second Carlist, or Bourbon traditionalist, Spanish pretender (as Charles VI) who twice attempted unsuccessfully to seize the throne and who by perpetuating.","birth_year":"1818","death_year":"1861","image":"https://cdn.dayinhistory.dev/images/bio/1823-carlos_luis_de_borbon_count_de_montemolin.jpg"},{"created_at":"2025-05-30T18:26:20.783265Z","updated_at":"2025-05-30T18:26:20.943339Z","type":"death","name":"Charles III","description":"Holy Roman emperor","bio":"Charles III was a Frankish king and emperor, whose fall in 887 marked the final disintegration of the empire of Charlemagne.","birth_year":"","death_year":"","image":"https://cdn.dayinhistory.dev/images/bio/1773-charles_iii.jpg"},{"created_at":"2025-05-30T18:26:20.783265Z","updated_at":"2025-05-30T18:26:20.943339Z","type":"death","name":"Chiang Ching-kuo","description":"president of Taiwan","bio":"Chiang Ching-kuo was the son of Chiang Kai-shek (Jiang Jieshi), and his successor as leader of the Republic of China (Taiwan).","birth_year":"1910","death_year":"1988","image":"https://cdn.dayinhistory.dev/images/bio/1772-chiang_ching_kuo.jpg"},{"created_at":"2025-05-30T18:26:20.783265Z","updated_at":"2025-05-30T18:26:20.943339Z","type":"death","name":"Christian Magnus Falsen","description":"Norwegian politician","bio":"Christian Magnus Falsen was a nationalist political leader, generally regarded as the author of the Norwegian constitution.","birth_year":"1782","death_year":"1830","image":"https://cdn.dayinhistory.dev/images/bio/1814-christian_magnus_falsen.jpg"},{"created_at":"2025-05-30T18:26:20.783265Z","updated_at":"2025-05-30T18:26:20.943339Z","type":"death","name":"Constantin Siegwart-Müller","description":"Swiss politician","bio":"Constantin Siegwart-Müller was a Swiss politician who headed the Ultramontane Party at Lucerne and became the leader of the dissident Sonderbund.","birth_year":"1801","death_year":"1869","image":"https://cdn.dayinhistory.dev/images/bio/1822-constantin_siegwart_muller.JPG"},{"created_at":"2025-05-30T18:26:20.783265Z","updated_at":"2025-05-30T18:26:20.943339Z","type":"death","name":"Donny Hathaway","description":"American singer, composer, and musician","bio":"Donny Hathaway was a soul music singer, composer, and keyboardist whose influential work blends elements of rhythm and blues (R&B), jazz, and gospel music and helped lay the groundwork for American soul.","birth_year":"1945","death_year":"1979","image":"https://cdn.dayinhistory.dev/images/bio/1820-donny_hathaway.jpg"},{"created_at":"2025-05-30T18:26:20.783265Z","updated_at":"2025-05-30T18:26:20.943339Z","type":"death","name":"Edgar J. Goodspeed","description":"American biblical scholar","bio":"Edgar J.","birth_year":"1871","death_year":"1962","image":"https://cdn.dayinhistory.dev/images/bio/1804-edgar_j_goodspeed.jpg"},{"created_at":"2025-05-30T18:26:20.783265Z","updated_at":"2025-05-30T18:26:20.943339Z","type":"death","name":"Edmund Spenser","description":"English poet","bio":"Edmund Spenser was an English poet whose long allegorical poem The Faerie Queene is one of the greatest in the English language.","birth_year":"1552","death_year":"1553","image":"https://cdn.dayinhistory.dev/images/bio/1770-edmund_spenser.JPG"},{"created_at":"2025-05-30T18:26:20.783265Z","updated_at":"2025-05-30T18:26:20.943339Z","type":"death","name":"Edna Purviance","description":"American actress","bio":"Edna Purviance was an American movie actress of the silent film era, who played opposite Charlie Chaplin in more than 30 films, including such classic short works as The Tramp (1915), Easy Street (1917),.","birth_year":"1895","death_year":"1958","image":"https://cdn.dayinhistory.dev/images/bio/1779-edna_purviance.jpg"},{"created_at":"2025-05-30T18:26:20.783265Z","updated_at":"2025-05-30T18:26:20.943339Z","type":"death","name":"Ellen Stewart","description":"American theater director","bio":"Ellen Stewart was an American theatre director who founded (1961) and for nearly 50 years remained the visionary artistic director of the seminal La MaMa Experimental Theatre Club, an Off-Off-Broadway.","birth_year":"1919","death_year":"2011","image":"https://cdn.dayinhistory.dev/images/bio/1805-ellen_stewart.jpg"},{"created_at":"2025-05-30T18:26:20.783265Z","updated_at":"2025-05-30T18:26:20.943339Z","type":"death","name":"Ernie Kovacs","description":"American comedian","bio":"Ernie Kovacs was an American television comedian.","birth_year":"1919","death_year":"1962","image":"https://cdn.dayinhistory.dev/images/bio/1771-ernie_kovacs.JPG"},{"created_at":"2025-05-30T18:26:20.783265Z","updated_at":"2025-05-30T18:26:20.943339Z","type":"death","name":"Fabian Gottlieb von Bellingshausen","description":"Russian explorer","bio":"Fabian Gottlieb von Bellingshausen was a Russian explorer who led the second expedition to circumnavigate Antarctica (1819–21) and for whom the Bellingshausen Sea, an area of the Antarctic waters, was.","birth_year":"1778","death_year":"1852","image":"https://cdn.dayinhistory.dev/images/bio/1784-fabian_gottlieb_von_bellingshausen.jpg"},{"created_at":"2025-05-30T18:26:20.783265Z","updated_at":"2025-05-30T18:26:20.943339Z","type":"death","name":"Felisberto Hernández","description":"Uruguayan writer","bio":"Felisberto Hernández was one of the most original Latin American short-story writers.","birth_year":"1902","death_year":"1964","image":"https://cdn.dayinhistory.dev/images/bio/1812-felisberto_hernandez.jpg"},{"created_at":"2025-05-30T18:26:20.783265Z","updated_at":"2025-05-30T18:26:20.943339Z","type":"death","name":"Frederick","description":"king of Germany","bio":"Frederick (III) was a German king from 1314 to 1326, also duke of Austria (as Frederick III) from 1308, the second son of the German king Albert I.","birth_year":"1286","death_year":"1330","image":null},{"created_at":"2025-05-30T18:26:20.783265Z","updated_at":"2025-05-30T18:26:20.943339Z","type":"death","name":"George Fox","description":"English religious leader","bio":"George Fox was an English preacher and missionary and founder of the Society of Friends (or Quakers).","birth_year":"1624","death_year":"1691","image":"https://cdn.dayinhistory.dev/images/bio/1778-george_fox.jpg"}]}